13 13 13
23
9
18
5
5
24
19
8
33
21
26
6
25
18
37
10
45
49
20
46
32
3
43
1
26
31
17
10
33
25
3
9
43
39
27
38
46
39
6
41
11
31
44
35
24
9
34
27
6
10
45
39
26
24
31
41
40
22
2
19
5
9
8
37
43
16
33
34
30
12
20
8
18
13
28
23
18
18
16
24
35
27
2
23
26
23
33
32
8
2
27
20
7
33
49
6
31
42
48
34
23
13
17
47
34
7
18
4
14
8
1
50
20
15
6
43
18
10
47
1
13
15
29
14
35
37
4
18
10
30
22
35
1
32
1
41
24
50
14
14
1
40
48
8
21
39
17
37
45
49
3
35
20
47
7
47
16
31
14
48
34
17
6
15
4
41
38
24
34
27
24
37
37
19
48
44
24
15
17
6
25
39
5
43
4
24
8
5
12
11
35
42
23
40
44
9
35
10
34
17
32
24
49
32
4
43
42
19
11
46
49
42
43
46
42
41
18
22
7
8
16
6
38
5
17
37
36
50
45
1
3
32
13
39
22
4
8
40
31
5
42
49
8
19
16
21
23
20
32
31
25
23
10
40
45
37
15
7
46
1
47
22
10
9
38
16
32
8
3
40
25
13
39
18
11
22
47
26
2
22
37
8
15
43
49
50
24
14
18
42
21
7
31
40
30
13
33
42
39
21
10
48
18
21
28
10
10
5
3
24
5
48
49
40
15
43
44
38
7
48
23
23
4
25
43
38
29
34
10
6
18
14
15
34
21
33
42
49
30
48
42
3
36
43
19
44
42
22
7
18
15
8
29
21
11
14
39
7
2
21
33
10
44
31
1
36
23
32
16
21
33
47
29
35
42
15
17
14
17
16
14
33
22
49
9
34
23
21
18
47
42
3
49
13
40
2
50
16
49
12
30
2
8
26
23
6
45
12
33
48
19
28
9
40
31
20
5
16
26
20
7
35
38
41
19
29
35
35
20
6
41
18
20
16
41
20
37
42
19
37
26
12
28
36
35
6
50
50
46
9
5
13
12
42
2
20
16
4
21
41
14
46
20
16
6
33
16
6
46
42
36
18
16
50
30
46
1
31
15
46
40
49
33
50
44
37
41
48
29
9
26
1
20
9
28
19
31
49
29
36
35
8
2
34
15
18
5
47
19
7
3
38
8
37
20
25
26
17
38
10
17
5
37
12
12
6
4
30
15
28
30
16
9
23
37
10
43
17
32
10
10
37
19
39
19
6
49
27
1
38
31
20
33
30
37
15
21
41
25
29
23
34
5
6
32
50
39
22
19
50
2
28
8
48
3
39
31
36
17
14
41
37
27
17
9
2
19
6
49
25
40
43
39
44
37
34
28
45
2
32
26
4
16
7
34
10
11
20
43
14
1
14
40
37
8
31
8
46
28
49
11
15
17
26
41
13
18
12
41
42
43
36
10
9
24
37
23
9
11
18
48
16
5
42
22
3
29
19
38
25
27
29
4
25
44
39
7
18
34
39
14
8
46
50
5
46
28
40
31
25
41
33
17
5
17
33
33
46
38
14
7
15
36
32
7
36
32
41
25
30
50
44
50
14
34
16
27
29
13
24
12
5
6
36
38
14
21
19
19
25
46
31
27
15
26
35
31
24
19
2
17
8
3
42
34
2
5
10
18
20
16
42
19
10
23
43
36
18
31
34
46
26
49
4
19
43
38
19
36
21
36
41
11
3
13
43
34
2
37
37
16
28
27
15
17
2
50
1
7
13
12
39
47
30
33
4
25
9
2
24
8
41
29
10
16
17
42
37
10
34
26
20
14
8
6
28
32
47
19
11
42
46
21
27
10
22
46
17
28
21
28
29
44
45
14
44
35
13
16
8
3
14
29
2
25
25
3
15
6
9
37
31
14
24
49
46
48
38
46
7
34
14
12
10
9
19
1
48
6
8
15
36
44
47
49
3
34
2
19
6
6
30
10
35
15
41
5
25
26
1
35
11
46
48
14
27
40
49
36
31
23
42
19
20
26
26
27
21
3
4
25
28
20
19
2
3
2
31
17
18
21
9
24
49
46
38
32
41
12
24
40
43
25
50
21
9
39
8
27
26
25
1
8
45
33
24
11
4
27
21
35
12
2
11
22
43
22
1
23
50
15
4
49
49
33
1
50
11
42
46
32
40
9
23
21
3
25
48
37
24
24
16
23
38
27
33
16
7
24
1
20
46
44
10
37
42
47
15
12
31
9
9
16
17
32
19
23
36
46
2
29
15
7
2
17
10
46
1
18
16
26
5
42
16
32
45
8
9
31
21
39
6
39
27
3
34
8
7
29
29
19
24
26
15
39
24
13
14
37
18
9
2
19
46
47
26
45
25
42
47
32
36
11
13
18
4
28
41
44
42
19
13
25
34
19
13
15
18
44
47
30
18
12
21
49
50
16
40
10
50
37
13
1
26
33
8
15
22
36
28
46
4
26
24
33
23
26
14
45
40
28
32
5
23
10
40
7
23
15
3
13
12
14
42
33
24
10
8
44
39
27
40
34
30
9
37
15
31
22
14
19
44
25
40
50
45
41
19
30
18
45
17
37
25
38
11
17
41
6
26
2
11
15
28
27
42
25
44
17
46
4
22
41
14
16
14
30
46
23
27
1
13
27
4
9
47
37
8
46
12
2
44
1
39
14
2
5
26
31
7
26
7
37
13
19
3
2
45
19
37
28
44
50
29
38
18
23
28
32
29
3
10
42
30
37
3
42
14
42
20
29
28
22
41
13
39
23
4
26
13
28
6
5
3
47
26
44
35
45
37
50
33
49
10
35
3
32
25
30
15
6
23
28
46
9
50
6
39
42
46
4
47
24
13
38
8
10
34
9
40
22
10
36
12
36
24
24
1
48
3
40
37
11
47
35
44
28
42
46
23
3
2
6
36
49
30
38
45
3
36
13
1
5
3
3
29
10
42
43
5
50
32
7
31
12
7
50
29
15
24
36
24
24
50
16
11
21
4
38
40
26
17
1
46
22
45
22
1
32
18
45
41
10
35
8
49
21
3
22
29
5
21
40
19
29
32
8
38
5
15
2
27
22
22
15
44
15
24
30
17
2
41
16
6
33
16
36
11
1
10
9
50
21
28
38
21
20
7
27
7
12
34
13
11
26
7
16
21
7
49
7
27
12
50
16
38
11
14
49
18
26
21
49
42
24
29
39
22
2
30
20
6
36
5
29
23
13
47
21
36
16
46
3
46
25
38
15
50
8
41
37
48
6
37
29
30
24
47
3
28
2
31
10
4
18
23
20
37
20
19
24
22
31
8
22
8
5
10
11
49
7
29
29
30
9
9
25
22
43
8
1
36
34
1
20
23
34
38
44
33
7
3
34
2
23
46
10
29
10
48
26
22
41
17
33
8
36
42
42
37
28
11
47
38
43
32
42
36
6
6
39
14
18
43
4
1
20
3
2
3
9
35
25
13
27
6
27
41
44
22
43
8
30
7
1
4
3
32
10
10
19
35
18
13
1
36
19
26
16
24
33
27
2
19
2
46
49
14
14
23
30
5
28
3
18
8
26
27
43
24
44
24
9
43
29
27
24
25
35
2
41
33
3
20
24
4
9
33
23
40
8
9
44
6
35
17
16
6
33
36
9
10
28
2
13
43
39
32
10
21
48
15
5
8
18
11
1
5
35
32
39
1
11
14
15
45
12
46
9
28
28
46
50
15
30
34
8
36
45
39
4
19
30
47
11
28
18
28
28
11
44
45
47
4
43
22
11
18
14
42
23
1
20
1
45
11
31
40
21
1
47
45
14
3
10
37
16
1
39
10
8
14
39
26
6
5
14
30
49
8
19
12
11
21
24
8
13
20
42
33
39
27
23
2
33
26
38
30
43
29
45
41
47
12
3
42
24
50
18
40
22
44
21
25
29
9
31
42
35
1
2
48
38
49
36
11
30
27
43
37
35
4
2
34
36
30
49
3
38
26
41
16
1
29
44
39
45
36
8
31
40
48
5
32
45
12
11
42
45
27
22
32
36
43
18
21
22
44
29
40
16
20
25
43
46
18
34
36
39
49
30
16
2
47
10
44
5
7
19
44
31
46
18
49
33
45
17
10
43
15
24
33
47
16
49
44
9
7
8
11
33
8
6
3
16
35
29
27
8
8
29
21
21
15
13
5
15
30
50
19
27
39
12
2
32
29
30
41
36
34
44
35
46
25
38
37
50
25
33
2
4
32
33
32
15
29
32
11
36
20
33
31
19
30
27
44
34
39
42
21
18
10
23
31
20
11
28
17
31
23
15
19
42
49
5
25
39
32
26
30
5
27
36
5
47
10
49
31
14
40
39
26
45
18
16
23
15
30
36
3
36
50
49
16
22
22
8
13
18
20
26
44
42
2
9
30
13
44
45
12
38
19
40
30
24
24
31
1
15
26
32
20
48
34
11
1
24
8
41
19
40
3
32
28
8
18
30
49
34
10
35
4
23
6
50
50
14
23
37
34
43
1
2
25
14
45
7
37
3
45
32
35
2
12
45
23
33
41
10
12
11
42
38
35
23
19
12
21
30
17
1
5
17
14
45
29
28
11
27
18
35
17
28
37
42
33
27
18
43
46
22
23
14
19
46
35
17
17
43
50
13
23
49
11
38
21
2
14
50
40
3
17
20
4
22
29
43
39
7
7
30
40
10
48
44
2
31
26
27
16
21
11
40
19
19
50
37
45
33
35
19
9
19
46
41
41
37
24
24
3
12
45
30
23
7
31
43
38
38
32
48
9
12
12
6
34
39
14
35
16
7
22
4
6
6
29
5
50
38
45
15
6
11
24
8
35
28
8
13
26
20
2
46
35
19
42
24
26
4
33
50
35
37
7
38
1
43
23
14
39
16
29
41
36
5
39
12
5
17
38
7
6
18
4
45
17
8
32
36
23
12
36
4
33
15
1
46
17
28
3
31
25
14
4
39
10
50
48
38
12
50
19
32
50
31
14
47
